<svg width="20" height="20" viewBox="0 0 20 20" fill="none" xmlns="http://www.w3.org/2000/svg">
<rect width="20" height="20" fill="black" fill-opacity="0"/>
<path d="M7.32617 14.1239C6.91797 14.5255 6.88916 15.2079 7.26123 15.6482C7.6333 16.0884 8.26611 16.1198 8.67383 15.7181L13.6738 10.7971C13.8818 10.5927 14 10.3033 14 10C14 9.69666 13.8818 9.40735 13.6738 9.20288L8.67383 4.28186C8.51318 4.12354 8.31738 4.03247 8.1167 4.0072C7.80762 3.96838 7.48682 4.08508 7.26123 4.35181C6.88916 4.79211 6.91797 5.47449 7.32617 5.8761L11.5161 10L7.32617 14.1239Z" fill="#632582"/>
<path fill-rule="evenodd" clip-rule="evenodd" d="M0 10C0 4.47253 4.47314 0 10 0C15.5273 0 20 4.47327 20 10C20 15.5275 15.5269 20 10 20C4.47266 20 0 15.5267 0 10ZM1.5625 10C1.5625 14.6638 5.33691 18.4375 10 18.4375C14.6636 18.4375 18.4375 14.6632 18.4375 10C18.4375 5.33618 14.6631 1.5625 10 1.5625C5.33643 1.5625 1.5625 5.33679 1.5625 10Z" fill="#632582"/>
</svg>
