<svg width="16" height="18" viewBox="0 0 16 18" fill="none" xmlns="http://www.w3.org/2000/svg">
<rect width="15" height="18" fill="black" fill-opacity="0" transform="translate(15.2998) scale(-1 1)"/>
<rect width="15" height="18" fill="black" fill-opacity="0" transform="translate(15.2998) scale(-1 1)"/>
<path d="M0.664698 8.53979C0.907825 8.30113 1.20285 8.18189 1.55023 8.18189H1.96666V5.72721C1.96666 4.15905 2.53943 2.81258 3.68533 1.68758C4.83114 0.562525 6.20243 0 7.79987 0C9.39727 0 10.7688 0.562525 11.9146 1.68753C13.0605 2.81258 13.6332 4.15901 13.6332 5.72721V8.18189H14.0498C14.3969 8.18189 14.6921 8.30113 14.9352 8.53979C15.1783 8.77827 15.2998 9.0681 15.2998 9.40921V16.7728C15.2998 17.1136 15.1783 17.4035 14.9352 17.6422C14.6921 17.8806 14.3969 18 14.0498 18H1.54991C1.20253 18 0.907551 17.8808 0.664379 17.6422C0.421527 17.4035 0.299804 17.1136 0.299804 16.7728V9.40908C0.299622 9.06824 0.421526 8.77845 0.664698 8.53979ZM4.46656 8.18189H11.1332V5.72721C11.1332 4.82384 10.8076 4.05248 10.1566 3.41339C9.50545 2.77421 8.71993 2.45468 7.79974 2.45468C6.87945 2.45468 6.09411 2.77416 5.44295 3.41339C4.7921 4.05244 4.46656 4.82384 4.46656 5.72721V8.18189Z" fill="#632582"/>
</svg>
